       __       _______.  ______   .__   __.    ____    __    ____  _______ .______      .___________.  ______    __  ___  _______ .__   __.
      |  |     /       | /  __  \  |  \ |  |    \   \  /  \  /   / |   ____||   _  \     |           | /  __  \  |  |/  / |   ____||  \ |  |
      |  |    |   (----`|  |  |  | |   \|  |     \   \/    \/   /  |  |__   |  |_)  |    `---|  |----`|  |  |  | |  '  /  |  |__   |   \|  |
.--.  |  |     \   \    |  |  |  | |  . `  |      \            /   |   __|  |   _  <         |  |     |  |  |  | |    <   |   __|  |  . `  |
|  `--'  | .----)   |   |  `--'  | |  |\   |       \    /\    /    |  |____ |  |_)  |        |  |     |  `--'  | |  .  \  |  |____ |  |\   |
 \______/  |_______/     \______/  |__| \__|        \__/  \__/     |_______||______/         |__|      \______/  |__|\__\ |_______||__| \__|



     ___      .__   __.  _______     .______       _______  _______ .______       _______      _______. __    __     .___________.  ______    __  ___  _______ .__   __.
    /   \     |  \ |  | |       \    |   _  \     |   ____||   ____||   _  \     |   ____|    /       ||  |  |  |    |           | /  __  \  |  |/  / |   ____||  \ |  |
   /  ^  \    |   \|  | |  .--.  |   |  |_)  |    |  |__   |  |__   |  |_)  |    |  |__      |   (----`|  |__|  |    `---|  |----`|  |  |  | |  '  /  |  |__   |   \|  |
  /  /_\  \   |  . `  | |  |  |  |   |      /     |   __|  |   __|  |      /     |   __|      \   \    |   __   |        |  |     |  |  |  | |    <   |   __|  |  . `  |
 /  _____  \  |  |\   | |  '--'  |   |  |\  \----.|  |____ |  |     |  |\  \----.|  |____ .----)   |   |  |  |  |        |  |     |  `--'  | |  .  \  |  |____ |  |\   |
/__/     \__\ |__| \__| |_______/    | _| `._____||_______||__|     | _| `._____||_______||_______/    |__|  |__|        |__|      \______/  |__|\__\ |_______||__| \__|